-------------------------------------------------------------------------------
Test set: helpers.AuthHelperTest
-------------------------------------------------------------------------------
Tests run: 2, Failures: 0, Errors: 0, Skipped: 0, Time elapsed: 2.428 sec
